…
<img src="man/figures/README-er-plot-2.png" alt="" width="100%" />

## VPC plots

``` r
sim <- erglm_vpc_sim(mod2, seed = 1234)
sim
#> # A tibble: 30,000 × 5
#>      ae2 aucss sex    row_id sim_id
#>    <int> <dbl> <fct>   <int>  <int>
#>  1     1  673. Male        1      1
#>  2     1 2806. Female      2      1
#>  3     0    0  Female      3      1
#>  4     1 1169. Female      4      1
#>  5     0  377. Male        5      1
#>  6     1  327. Female      6      1
#>  7     0    0  Male        7      1
#>  8     1 1208. Female      8      1
#>  9     0    0  Male        9      1
#> 10     0  254. Female     10      1
#> # ℹ 29,990 more rows
…
